%YAML 1.1
%TAG !u! tag:unity3d.com,2011:
--- !u!114 &11400000
MonoBehaviour:
  m_ObjectHideFlags: 0
  m_CorrespondingSourceObject: {fileID: 0}
  m_PrefabInstance: {fileID: 0}
  m_PrefabAsset: {fileID: 0}
  m_GameObject: {fileID: 0}
  m_Enabled: 1
  m_EditorHideFlags: 0
  m_Script: {fileID: 11500000, guid: 84b84f2279338f24ca5d8627fd5b5c8d, type: 3}
  m_Name: ShotWide1
  m_EditorClassIdentifier: 
  _Type: 1
  _Attack: 100
  _MoveSpeed: 3
  _UseGage: 30
  _Prafab: {fileID: 6769880028651345014, guid: 72de7e962d34a3f4b88f2c073d745558, type: 3}
  _WayCount: 3
  _AddRot: 5
